    static void teste()
    {
        java.lang.Integer N, i, temp$7, temp$12, b, temp$19, j, temp$35, temp$38, primes, a, temp$44, temp$49, temp$52;
        int temp$0, temp$1, temp$2, temp$3, temp$4, temp$5, temp$8, temp$10, temp$11, temp$13, temp$14, temp$15, temp$16, temp$17, temp$22, temp$23, temp$24, temp$25, temp$27, temp$28, temp$29, temp$30, temp$31, temp$33, temp$34, temp$36, temp$37, temp$39, temp$40, temp$41, temp$42, temp$47, temp$48, temp$50, temp$51;
        java.lang.Boolean[] isPrime, temp$6, temp$18, temp$26, temp$43;
        java.lang.Boolean temp$9, temp$20, temp$32, temp$45;
        boolean temp$21, temp$46;
        java.io.PrintStream temp$53, tmpN6942, tmpi4412, tmpb4653, tmpj3052, tmpprimes4822, tmpa9546;
        java.lang.StringBuffer temp$54;
        java.lang.String temp$55;

        tmpa9546 = <java.lang.System: java.io.PrintStream out>;
        tmpprimes4822 = <java.lang.System: java.io.PrintStream out>;
        tmpj3052 = <java.lang.System: java.io.PrintStream out>;
        tmpb4653 = <java.lang.System: java.io.PrintStream out>;
        tmpi4412 = <java.lang.System: java.io.PrintStream out>;
        tmpN6942 = <java.lang.System: java.io.PrintStream out>;
        temp$0 = staticinvoke <java.lang.Integer: int parseInt(java.lang.String)>("100000");
        N = staticinvoke <java.lang.Integer: java.lang.Integer valueOf(int)>(temp$0);
        temp$1 = virtualinvoke N.<java.lang.Integer: int intValue()>();
        temp$2 = temp$1 + 1;
        isPrime = newarray (java.lang.Boolean)[temp$2];
        temp$3 = 2;
        i = staticinvoke <java.lang.Integer: java.lang.Integer valueOf(int)>(temp$3);

     label0:
        nop;
        temp$4 = virtualinvoke i.<java.lang.Integer: int intValue()>();
        temp$5 = virtualinvoke N.<java.lang.Integer: int intValue()>();
        if temp$4 <= temp$5 goto label1;

        goto label2;

        virtualinvoke tmpi4412.<java.io.PrintStream: void println(java.lang.String)>("[LOOF] [i]-[java.lang.Integer] ");

     label1:
        nop;
        virtualinvoke tmpN6942.<java.io.PrintStream: void println(java.lang.String)>("[LOOF] [N]-[java.lang.Integer] ");
        temp$6 = isPrime;
        temp$7 = i;
        temp$8 = 1;
        temp$9 = staticinvoke <java.lang.Boolean: java.lang.Boolean valueOf(boolean)>(temp$8);
        temp$6[temp$7] = temp$9;
        nop;
        temp$10 = virtualinvoke i.<java.lang.Integer: int intValue()>();
        temp$11 = temp$10 + 1;
        temp$12 = staticinvoke <java.lang.Integer: java.lang.Integer valueOf(int)>(temp$11);
        i = temp$12;
        goto label0;

     label2:
        nop;
        temp$13 = 2;
        b = staticinvoke <java.lang.Integer: java.lang.Integer valueOf(int)>(temp$13);

     label3:
        nop;
        temp$14 = virtualinvoke b.<java.lang.Integer: int intValue()>();
        temp$15 = virtualinvoke b.<java.lang.Integer: int intValue()>();
        temp$16 = temp$14 * temp$15;
        temp$17 = virtualinvoke N.<java.lang.Integer: int intValue()>();
        if temp$16 <= temp$17 goto label4;

        goto label10;

        virtualinvoke tmpb4653.<java.io.PrintStream: void println(java.lang.String)>("[LOOF] [b]-[java.lang.Integer] ");

     label4:
        nop;
        virtualinvoke tmpN6942.<java.io.PrintStream: void println(java.lang.String)>("[LOOF] [N]-[java.lang.Integer] ");
        temp$18 = isPrime;
        temp$19 = b;
        temp$20 = temp$18[temp$19];
        temp$21 = virtualinvoke temp$20.<java.lang.Boolean: boolean booleanValue()>();
        if temp$21 == 0 goto label9;

        goto label5;

        virtualinvoke tmpb4653.<java.io.PrintStream: void println(java.lang.String)>("[LOOF] [b]-[java.lang.Integer] ");

     label5:
        nop;
        j = b;

     label6:
        nop;
        temp$22 = virtualinvoke b.<java.lang.Integer: int intValue()>();
        temp$23 = virtualinvoke j.<java.lang.Integer: int intValue()>();
        temp$24 = temp$22 * temp$23;
        temp$25 = virtualinvoke N.<java.lang.Integer: int intValue()>();
        if temp$24 <= temp$25 goto label7;

        goto label8;

        virtualinvoke tmpj3052.<java.io.PrintStream: void println(java.lang.String)>("[LOOF] [j]-[java.lang.Integer] ");

     label7:
        nop;
        temp$26 = isPrime;
        temp$27 = virtualinvoke b.<java.lang.Integer: int intValue()>();
        temp$28 = virtualinvoke j.<java.lang.Integer: int intValue()>();
        temp$29 = temp$27 * temp$28;
        temp$30 = temp$29;
        temp$31 = 0;
        temp$32 = staticinvoke <java.lang.Boolean: java.lang.Boolean valueOf(boolean)>(temp$31);
        temp$26[temp$30] = temp$32;
        nop;
        temp$33 = virtualinvoke j.<java.lang.Integer: int intValue()>();
        temp$34 = temp$33 + 1;
        temp$35 = staticinvoke <java.lang.Integer: java.lang.Integer valueOf(int)>(temp$34);
        j = temp$35;
        goto label6;

     label8:
        nop;

     label9:
        nop;
        nop;
        temp$36 = virtualinvoke b.<java.lang.Integer: int intValue()>();
        temp$37 = temp$36 + 1;
        temp$38 = staticinvoke <java.lang.Integer: java.lang.Integer valueOf(int)>(temp$37);
        b = temp$38;
        goto label3;

     label10:
        nop;
        temp$39 = 0;
        primes = staticinvoke <java.lang.Integer: java.lang.Integer valueOf(int)>(temp$39);
        temp$40 = 2;
        a = staticinvoke <java.lang.Integer: java.lang.Integer valueOf(int)>(temp$40);

     label11:
        nop;
        temp$41 = virtualinvoke a.<java.lang.Integer: int intValue()>();
        temp$42 = virtualinvoke N.<java.lang.Integer: int intValue()>();
        if temp$41 <= temp$42 goto label12;

        goto label15;

        virtualinvoke tmpa9546.<java.io.PrintStream: void println(java.lang.String)>("[LOOF] [a]-[java.lang.Integer] ");

     label12:
        nop;
        virtualinvoke tmpprimes4822.<java.io.PrintStream: void println(java.lang.String)>("[LOOF] [primes]-[java.lang.Integer] ");
        virtualinvoke tmpN6942.<java.io.PrintStream: void println(java.lang.String)>("[LOOF] [N]-[java.lang.Integer] ");
        temp$43 = isPrime;
        temp$44 = a;
        temp$45 = temp$43[temp$44];
        temp$46 = virtualinvoke temp$45.<java.lang.Boolean: boolean booleanValue()>();
        if temp$46 == 0 goto label14;

        goto label13;

        virtualinvoke tmpa9546.<java.io.PrintStream: void println(java.lang.String)>("[LOOF] [a]-[java.lang.Integer] ");

     label13:
        nop;
        temp$47 = virtualinvoke primes.<java.lang.Integer: int intValue()>();
        temp$48 = temp$47 + 1;
        temp$49 = staticinvoke <java.lang.Integer: java.lang.Integer valueOf(int)>(temp$48);
        primes = temp$49;

     label14:
        nop;
        nop;
        temp$50 = virtualinvoke a.<java.lang.Integer: int intValue()>();
        temp$51 = temp$50 + 1;
        temp$52 = staticinvoke <java.lang.Integer: java.lang.Integer valueOf(int)>(temp$51);
        a = temp$52;
        goto label11;

     label15:
        nop;
        temp$53 = <java.lang.System: java.io.PrintStream out>;
        temp$54 = new java.lang.StringBuffer;
        specialinvoke temp$54.<java.lang.StringBuffer: void <init>()>();
        virtualinvoke temp$54.<java.lang.StringBuffer: java.lang.StringBuffer append(java.lang.Object)>("The number of primes <= ");
        virtualinvoke temp$54.<java.lang.StringBuffer: java.lang.StringBuffer append(java.lang.Object)>(N);
        virtualinvoke temp$54.<java.lang.StringBuffer: java.lang.StringBuffer append(java.lang.Object)>(" is ");
        virtualinvoke temp$54.<java.lang.StringBuffer: java.lang.StringBuffer append(java.lang.Object)>(primes);
        temp$55 = virtualinvoke temp$54.<java.lang.StringBuffer: java.lang.String toString()>();
        virtualinvoke temp$53.<java.io.PrintStream: void println(java.lang.String)>(temp$55);
        return;
    }

